%!PS-Adobe-3.0 EPSF-3.0
%%Creator: cairo 1.13.1 (http://cairographics.org)
%%CreationDate: Mon May  9 19:05:45 2016
%%Pages: 1
%%DocumentData: Clean7Bit
%%LanguageLevel: 2
%%BoundingBox: 2 3 78 79
%%EndComments
%%BeginProlog
save
50 dict begin
/q { gsave } bind def
/Q { grestore } bind def
/cm { 6 array astore concat } bind def
/w { setlinewidth } bind def
/J { setlinecap } bind def
/j { setlinejoin } bind def
/M { setmiterlimit } bind def
/d { setdash } bind def
/m { moveto } bind def
/l { lineto } bind def
/c { curveto } bind def
/h { closepath } bind def
/re { exch dup neg 3 1 roll 5 3 roll moveto 0 rlineto
      0 exch rlineto 0 rlineto closepath } bind def
/S { stroke } bind def
/f { fill } bind def
/f* { eofill } bind def
/n { newpath } bind def
/W { clip } bind def
/W* { eoclip } bind def
/BT { } bind def
/ET { } bind def
/pdfmark where { pop globaldict /?pdfmark /exec load put }
    { globaldict begin /?pdfmark /pop load def /pdfmark
    /cleartomark load def end } ifelse
/BDC { mark 3 1 roll /BDC pdfmark } bind def
/EMC { mark /EMC pdfmark } bind def
/cairo_store_point { /cairo_point_y exch def /cairo_point_x exch def } def
/Tj { show currentpoint cairo_store_point } bind def
/TJ {
  {
    dup
    type /stringtype eq
    { show } { -0.001 mul 0 cairo_font_matrix dtransform rmoveto } ifelse
  } forall
  currentpoint cairo_store_point
} bind def
/cairo_selectfont { cairo_font_matrix aload pop pop pop 0 0 6 array astore
    cairo_font exch selectfont cairo_point_x cairo_point_y moveto } bind def
/Tf { pop /cairo_font exch def /cairo_font_matrix where
      { pop cairo_selectfont } if } bind def
/Td { matrix translate cairo_font_matrix matrix concatmatrix dup
      /cairo_font_matrix exch def dup 4 get exch 5 get cairo_store_point
      /cairo_font where { pop cairo_selectfont } if } bind def
/Tm { 2 copy 8 2 roll 6 array astore /cairo_font_matrix exch def
      cairo_store_point /cairo_font where { pop cairo_selectfont } if } bind def
/g { setgray } bind def
/rg { setrgbcolor } bind def
/d1 { setcachedevice } bind def
%%EndProlog
%%BeginSetup
%%EndSetup
%%Page: 1 1
%%BeginPageSetup
%%PageBoundingBox: 2 3 78 79
%%EndPageSetup
q 2 3 76 76 rectclip q
0 g
54.695 53.723 m 54.695 49.922 51.113 46.84 46.691 46.84 c 42.27 46.84 38.688
 49.922 38.688 53.723 c 38.688 57.523 42.27 60.605 46.691 60.605 c 51.113
 60.605 54.695 57.523 54.695 53.723 c h
54.695 53.723 m f
50.516 30.004 m 41.152 42.441 l 42.348 44.477 41.828 47.016 39.73 48.57
 c 38.262 49.656 36.352 50.012 34.598 49.672 c 26.098 54.039 l 28.109 61.055
 l 28.629 62.871 27.34 64.707 25.227 65.152 c 24.566 65.293 23.902 65.281
 23.285 65.141 c 18.414 69.871 l 21.562 72.266 l 22 72.602 22.043 73.18 
21.652 73.559 c 17.078 78 l 16.688 78.383 16.016 78.418 15.574 78.078 c 
7.027 71.574 l 6.582 71.238 6.543 70.656 6.934 70.277 c 11.508 65.836 l 
11.898 65.457 12.574 65.422 13.012 65.758 c 16.16 68.152 l 20.879 63.57 
l 20.695 63.297 20.555 62.996 20.461 62.676 c 17.75 53.227 l 17.336 51.781
 18.07 50.273 19.555 49.508 c 28.363 44.984 l 16.121 32.738 l 14.387 31.004
 14.258 28.551 15.613 26.715 c 14.523 19.863 l 3.242 10.277 l 1.637 8.914
 1.621 6.691 3.207 5.309 c 4.793 3.93 7.379 3.918 8.984 5.281 c 21.25 15.711
 l 21.891 16.254 22.305 16.965 22.426 17.73 c 23.188 22.516 l 26.238 20.203
 l 29.277 6.816 l 29.711 4.91 31.859 3.672 34.07 4.043 c 36.285 4.414 37.727
 6.258 37.297 8.164 c 33.988 22.719 l 33.816 23.48 33.355 24.168 32.684 
24.68 c 27.531 28.586 l 35.91 36.969 l 43.918 26.332 l 44.301 25.82 44.824
 25.426 45.418 25.164 c 46.625 24.629 48.125 24.652 49.352 25.332 c 51.172
 26.348 51.691 28.438 50.516 30.004 c h
50.516 30.004 m f
75.586 23.773 m 50.508 23.773 l 49 21.77 48.121 19.379 48.121 16.812 c 
48.121 9.723 54.805 3.977 63.047 3.977 c 71.293 3.977 77.973 9.723 77.973
 16.812 c 77.973 19.379 77.094 21.77 75.586 23.773 c h
75.586 23.773 m f
Q Q
showpage
%%Trailer
end restore
%%EOF
