%!PS-Adobe-3.0 EPSF-3.0
%%Creator: cairo 1.13.1 (http://cairographics.org)
%%CreationDate: Mon May  9 22:26:34 2016
%%Pages: 1
%%DocumentData: Clean7Bit
%%LanguageLevel: 2
%%BoundingBox: 4 34 76 75
%%EndComments
%%BeginProlog
save
50 dict begin
/q { gsave } bind def
/Q { grestore } bind def
/cm { 6 array astore concat } bind def
/w { setlinewidth } bind def
/J { setlinecap } bind def
/j { setlinejoin } bind def
/M { setmiterlimit } bind def
/d { setdash } bind def
/m { moveto } bind def
/l { lineto } bind def
/c { curveto } bind def
/h { closepath } bind def
/re { exch dup neg 3 1 roll 5 3 roll moveto 0 rlineto
      0 exch rlineto 0 rlineto closepath } bind def
/S { stroke } bind def
/f { fill } bind def
/f* { eofill } bind def
/n { newpath } bind def
/W { clip } bind def
/W* { eoclip } bind def
/BT { } bind def
/ET { } bind def
/pdfmark where { pop globaldict /?pdfmark /exec load put }
    { globaldict begin /?pdfmark /pop load def /pdfmark
    /cleartomark load def end } ifelse
/BDC { mark 3 1 roll /BDC pdfmark } bind def
/EMC { mark /EMC pdfmark } bind def
/cairo_store_point { /cairo_point_y exch def /cairo_point_x exch def } def
/Tj { show currentpoint cairo_store_point } bind def
/TJ {
  {
    dup
    type /stringtype eq
    { show } { -0.001 mul 0 cairo_font_matrix dtransform rmoveto } ifelse
  } forall
  currentpoint cairo_store_point
} bind def
/cairo_selectfont { cairo_font_matrix aload pop pop pop 0 0 6 array astore
    cairo_font exch selectfont cairo_point_x cairo_point_y moveto } bind def
/Tf { pop /cairo_font exch def /cairo_font_matrix where
      { pop cairo_selectfont } if } bind def
/Td { matrix translate cairo_font_matrix matrix concatmatrix dup
      /cairo_font_matrix exch def dup 4 get exch 5 get cairo_store_point
      /cairo_font where { pop cairo_selectfont } if } bind def
/Tm { 2 copy 8 2 roll 6 array astore /cairo_font_matrix exch def
      cairo_store_point /cairo_font where { pop cairo_selectfont } if } bind def
/g { setgray } bind def
/rg { setrgbcolor } bind def
/d1 { setcachedevice } bind def
%%EndProlog
%%BeginSetup
%%EndSetup
%%Page: 1 1
%%BeginPageSetup
%%PageBoundingBox: 4 34 76 75
%%EndPageSetup
q 4 34 72 41 rectclip q
1 g
11.707 68.59 m 11.176 68.578 10.23 66.441 9.703 66.391 c 9.586 66.324 20.996
 55.512 21.047 55.465 c 21.539 55.043 21.586 54.629 22.082 54.211 c 19.68
 51.934 17.703 51.703 15.289 49.438 c 14.727 48.898 10.617 45.191 10.066
 44.645 c 10.055 43.195 10.477 40.734 10.473 39.285 c 10.57 39.16 15.332
 40.539 15.43 40.59 c 19 43.949 22.52 48.938 26.098 52.289 c 26.211 52.391
 26.32 52.496 26.441 52.59 c 27.684 51.535 27.969 49.895 29.227 48.859 c
 29.562 48.633 30.934 49.203 31.32 49.246 c 31.68 49.324 32.293 48.781 32.559
 49.031 c 33.672 49.965 33.766 49.793 34.867 50.734 c 38.469 47.34 42.867
 45.301 46.473 41.906 c 46.625 41.902 46.973 42.035 47.113 42.086 c 47.996
 42.566 49.055 43.277 49.922 43.781 c 50.023 43.879 49.617 44.719 49.57 
44.789 c 47.203 47.043 45.113 49.355 42.734 51.594 c 41.43 52.82 39.559 
53.449 38.27 54.691 c 38.84 55.203 52.949 65.129 53.535 65.621 c 53.562 
65.785 49.781 69.043 49.676 69.078 c 34.707 58.816 l 34.141 58.371 33.031
 56.836 32.473 56.375 c 31.73 55.758 31.973 55.762 31.223 55.156 c 29.941
 56.223 28.375 61.355 27.105 62.438 c 26.402 62.465 18.535 66.109 17.828
 66.117 c 17.461 66.117 15.145 68.516 14.777 68.516 c h
11.707 68.59 m f
0 g
11.32 74.52 m 50.895 74.52 l 54.523 74.52 57.43 71.543 57.43 67.984 c 57.43
 57.965 l 57.066 58.035 56.777 58.035 56.414 58.035 c 55.543 58.035 l 52.129
 58.035 49.297 55.277 49.297 51.793 c 49.297 47.797 l 49.297 46.855 49.586
 45.984 50.094 45.258 c 50.094 43.879 l 50.023 43.805 49.949 43.805 49.879
 43.73 c 38.188 54.695 l 50.75 65.297 l 51.402 65.879 51.547 66.895 50.969
 67.547 c 50.387 68.203 49.371 68.348 48.715 67.766 c 31.07 52.953 l 13.57
 67.84 l 12.918 68.422 11.902 68.348 11.32 67.621 c 10.738 66.969 10.812
 65.953 11.539 65.371 c 24.102 54.77 l 11.395 42.859 l 10.738 42.281 10.738
 41.191 11.32 40.609 c 11.609 40.246 12.047 40.102 12.48 40.102 c 12.844
 40.102 13.281 40.246 13.57 40.535 c 26.422 52.664 l 29.98 49.613 l 30.273
 49.324 30.637 49.25 31 49.25 c 31.363 49.25 31.723 49.395 32.016 49.613
 c 35.574 52.664 l 46.902 41.988 l 46.32 41.555 45.668 41.117 45.086 40.609
 c 44.07 39.738 43.414 38.504 43.414 37.125 c 43.414 34.363 l 11.32 34.363
 l 7.691 34.363 4.785 37.344 4.785 40.898 c 4.785 67.91 l 4.711 71.543 7.691
 74.52 11.32 74.52 c h
63.238 53.68 m 63.238 50.121 l 63.238 49.539 63.527 49.031 63.965 48.742
 c 63.965 45.258 l 63.965 45.184 63.965 45.113 63.891 45.113 c 63.602 44.965
 62.875 44.602 61.859 44.023 c 61.859 43.805 l 63.094 43.078 64.98 41.988
 66.723 40.535 c 67.523 39.883 68.031 39.012 68.25 38.066 c 75.582 38.066
 l 75.582 40.535 l 75.582 41.047 75.363 41.555 74.93 41.918 c 72.68 43.73
 70.281 44.965 69.848 45.184 c 69.773 45.184 69.773 45.258 69.773 45.328
 c 69.773 48.816 l 70.211 49.105 70.5 49.613 70.5 50.195 c 70.5 53.68 l 
70.5 55.496 69.047 56.949 67.23 56.949 c 66.508 56.949 l 64.691 56.949 63.238
 55.496 63.238 53.68 c h
60.043 47.797 m 60.043 51.793 l 60.043 53.824 58.445 55.422 56.414 55.422
 c 55.543 55.422 l 53.508 55.422 51.91 53.824 51.91 51.793 c 51.91 47.797
 l 51.91 47.145 52.203 46.637 52.711 46.273 c 52.711 42.426 l 52.711 42.352
 52.637 42.281 52.637 42.281 c 52.055 41.988 49.371 40.684 46.902 38.578
 c 46.465 38.215 46.176 37.633 46.176 37.051 c 46.176 34.293 l 65.781 34.293
 l 65.781 37.051 l 65.781 37.633 65.488 38.215 65.055 38.578 c 62.586 40.609
 59.898 41.988 59.316 42.281 c 59.246 42.281 59.246 42.352 59.246 42.426
 c 59.246 46.273 l 59.68 46.637 60.043 47.145 60.043 47.797 c h
60.043 47.797 m f
Q Q
showpage
%%Trailer
end restore
%%EOF
