<?xml version="1.0" encoding="UTF-8" standalone="no"?>
<!-- Created with Inkscape (http://www.inkscape.org/) -->

<svg
   xmlns:dc="http://purl.org/dc/elements/1.1/"
   xmlns:cc="http://creativecommons.org/ns#"
   xmlns:rdf="http://www.w3.org/1999/02/22-rdf-syntax-ns#"
   xmlns:svg="http://www.w3.org/2000/svg"
   xmlns="http://www.w3.org/2000/svg"
   xmlns:sodipodi="http://sodipodi.sourceforge.net/DTD/sodipodi-0.dtd"
   xmlns:inkscape="http://www.inkscape.org/namespaces/inkscape"
   width="297mm"
   height="210mm"
   viewBox="0 0 1052.3622 744.09448"
   id="svg2"
   version="1.1"
   inkscape:version="0.91 r"
   sodipodi:docname="guidecommunautelesetapes.svg"
   inkscape:export-filename="/media/christophe/GrosDisque/Fichiersdetravail/Projets_Libres/LIVRESENCOURS/guidecommunaute/guidecommunautelesetapes.png"
   inkscape:export-xdpi="300"
   inkscape:export-ydpi="300">
  <defs
     id="defs4">
    <inkscape:path-effect
       effect="spiro"
       id="path-effect4635"
       is_visible="true" />
    <inkscape:path-effect
       effect="spiro"
       id="path-effect4214"
       is_visible="true" />
    <inkscape:path-effect
       effect="spiro"
       id="path-effect4210"
       is_visible="true" />
    <inkscape:path-effect
       effect="spiro"
       id="path-effect4206"
       is_visible="true" />
    <inkscape:path-effect
       effect="spiro"
       id="path-effect4202"
       is_visible="true" />
    <inkscape:path-effect
       effect="spiro"
       id="path-effect4178"
       is_visible="true" />
    <inkscape:path-effect
       effect="spiro"
       id="path-effect4174"
       is_visible="true" />
    <inkscape:path-effect
       effect="spiro"
       id="path-effect4152"
       is_visible="true" />
    <inkscape:path-effect
       effect="spiro"
       id="path-effect4148"
       is_visible="true" />
    <inkscape:path-effect
       effect="spiro"
       id="path-effect4174-1"
       is_visible="true" />
  </defs>
  <sodipodi:namedview
     id="base"
     pagecolor="#ffffff"
     bordercolor="#666666"
     borderopacity="1.0"
     inkscape:pageopacity="0.0"
     inkscape:pageshadow="2"
     inkscape:zoom="0.98994949"
     inkscape:cx="252.65652"
     inkscape:cy="226.63129"
     inkscape:document-units="px"
     inkscape:current-layer="layer1"
     showgrid="true"
     inkscape:window-width="1920"
     inkscape:window-height="1028"
     inkscape:window-x="0"
     inkscape:window-y="0"
     inkscape:window-maximized="1">
    <inkscape:grid
       type="xygrid"
       id="grid4198" />
  </sodipodi:namedview>
  <metadata
     id="metadata7">
    <rdf:RDF>
      <cc:Work
         rdf:about="">
        <dc:format>image/svg+xml</dc:format>
        <dc:type
           rdf:resource="http://purl.org/dc/dcmitype/StillImage" />
        <dc:title />
      </cc:Work>
    </rdf:RDF>
  </metadata>
  <g
     inkscape:label="Calque 1"
     inkscape:groupmode="layer"
     id="layer1"
     transform="translate(0,-308.26772)">
    <rect
       style="opacity:1;fill:#ffffff;fill-opacity:1;fill-rule:nonzero;stroke:none;stroke-width:2.5;stroke-linecap:round;stroke-linejoin:round;stroke-miterlimit:4;stroke-dasharray:2.5, 2.50000000000000000;stroke-dashoffset:0;stroke-opacity:1"
       id="rect4656"
       width="1160"
       height="820"
       x="-80"
       y="262.36221" />
    <path
       style="fill:#333333;fill-opacity:1;fill-rule:evenodd;stroke:#000000;stroke-width:2.5;stroke-linecap:butt;stroke-linejoin:miter;stroke-miterlimit:4;stroke-dasharray:2.5, 2.5;stroke-dashoffset:0;stroke-opacity:1"
       d="m 260,1030.3622 0,-660"
       id="path4633"
       inkscape:path-effect="#path-effect4635"
       inkscape:original-d="m 260,1030.3622 0,-660"
       inkscape:connector-curvature="0" />
    <circle
       style="opacity:1;fill:#4d4d4d;fill-opacity:1;fill-rule:nonzero;stroke:none;stroke-width:2.9000001;stroke-linecap:round;stroke-linejoin:round;stroke-miterlimit:4;stroke-dasharray:none;stroke-dashoffset:0;stroke-opacity:1"
       id="path4136"
       cx="790.3913"
       cy="714.72937"
       r="181.36032" />
    <circle
       style="opacity:1;fill:#ffffff;fill-opacity:1;fill-rule:nonzero;stroke:none;stroke-width:2.9000001;stroke-linecap:round;stroke-linejoin:round;stroke-miterlimit:4;stroke-dasharray:none;stroke-dashoffset:0;stroke-opacity:1"
       id="path4138"
       cx="790.54352"
       cy="714.56177"
       r="71.317162" />
    <path
       style="fill:#000000;fill-rule:evenodd;stroke:#000000;stroke-width:0.6921525px;stroke-linecap:butt;stroke-linejoin:miter;stroke-opacity:1"
       d="m 369.85492,720.92279 c -9.28766,-12.04533 -18.57534,-24.09065 -27.86302,-36.13599 -0.002,6.87476 -0.004,13.74949 -0.006,20.62423 -13.16294,-0.0206 -26.3259,-0.0411 -39.48883,-0.0617 -0.003,8.59344 -0.005,17.18688 -0.008,25.78031 13.16295,0.0206 26.32589,0.0411 39.48885,0.0617 -0.002,6.87477 -0.004,13.7495 -0.006,20.62425 9.29478,-10.29758 18.58954,-20.59518 27.8843,-30.89279 z"
       id="path4200"
       inkscape:connector-curvature="0" />
    <path
       style="fill:#000000;fill-rule:evenodd;stroke:#000000;stroke-width:0.47675312px;stroke-linecap:butt;stroke-linejoin:miter;stroke-opacity:1"
       d="m 691.68752,554.02133 c -3.57224,-10.44479 -7.14447,-20.88959 -10.7167,-31.33439 -2.07942,2.40375 -4.15884,4.80748 -6.23825,7.21122 -10.21589,-8.83752 -20.43177,-17.67506 -30.64765,-26.51258 -2.59929,3.00467 -5.19856,6.00934 -7.79783,9.01402 10.21588,8.83752 20.43177,17.67505 30.64766,26.51258 -2.07943,2.40373 -4.15883,4.80747 -6.23825,7.2112 10.33033,2.63265 20.66068,5.2653 30.99102,7.89795 z"
       id="path4200-1"
       inkscape:connector-curvature="0" />
    <path
       style="fill:#000000;fill-rule:evenodd;stroke:#000000;stroke-width:0.47675312px;stroke-linecap:butt;stroke-linejoin:miter;stroke-opacity:1"
       d="m 880.57277,547.80937 c 10.57379,-3.17006 21.1476,-6.34013 31.7214,-9.5102 -2.32245,-2.16987 -4.64488,-4.33975 -6.96731,-6.50956 9.22185,-9.87034 18.44374,-19.74068 27.66558,-29.61102 -2.90311,-2.71232 -5.80608,-5.42463 -8.70919,-8.13693 -9.22181,9.87034 -18.44367,19.74068 -27.66552,29.61103 -2.32243,-2.16986 -4.64486,-4.3397 -6.9673,-6.50955 -3.02589,10.22208 -6.05177,20.44415 -9.07766,30.66623 z"
       id="path4200-1-6"
       inkscape:connector-curvature="0" />
    <path
       style="fill:#000000;fill-rule:evenodd;stroke:#000000;stroke-width:0.47675312px;stroke-linecap:butt;stroke-linejoin:miter;stroke-opacity:1"
       d="m 768.5872,905.79463 c -3.97307,10.29896 -7.94613,20.59792 -11.91924,30.89694 3.13782,-0.50604 6.27564,-1.01209 9.41342,-1.51806 2.15063,13.33565 4.30126,26.67137 6.45187,40.0071 3.92227,-0.63259 7.84454,-1.26511 11.7668,-1.89762 -2.15062,-13.33573 -4.30125,-26.67138 -6.45184,-40.00712 3.13778,-0.50596 6.2756,-1.012 9.41342,-1.51806 -6.22481,-8.6544 -12.44961,-17.3088 -18.67443,-25.96318 z"
       id="path4200-1-62"
       inkscape:connector-curvature="0" />
    <g
       id="g4284"
       transform="translate(180.08454,-32.511234)">
      <path
         inkscape:connector-curvature="0"
         id="path4200-0"
         d="m 242.17501,390.20156 c -11.83899,-8.62386 -23.67797,-17.24772 -35.51697,-25.87159 0.005,4.93885 0.0102,9.87768 0.0153,14.81653 -16.75929,0.0271 -33.51859,0.0541 -50.27788,0.0812 0.006,6.17356 0.0127,12.34712 0.0191,18.52066 16.75929,-0.027 33.51858,-0.0541 50.27788,-0.0812 0.005,4.93884 0.0102,9.87768 0.0153,14.81652 11.82246,-7.42737 23.64492,-14.85476 35.46738,-22.28213 z"
         style="fill:#000000;fill-rule:evenodd;stroke:#000000;stroke-width:0.66196901px;stroke-linecap:butt;stroke-linejoin:miter;stroke-opacity:1" />
      <rect
         y="378.87744"
         x="91.850708"
         height="19.16688"
         width="64.285713"
         id="rect4279"
         style="opacity:1;fill:#000000;fill-opacity:1;fill-rule:nonzero;stroke:none;stroke-width:2.9000001;stroke-linecap:round;stroke-linejoin:round;stroke-miterlimit:4;stroke-dasharray:none;stroke-dashoffset:0;stroke-opacity:1" />
    </g>
    <path
       style="fill:#000000;fill-rule:evenodd;stroke:#000000;stroke-width:0.6921525px;stroke-linecap:butt;stroke-linejoin:miter;stroke-opacity:1"
       d="m 190.863,720.40087 c -9.28767,-12.04533 -18.57535,-24.09064 -27.86303,-36.13599 -0.002,6.87477 -0.004,13.74949 -0.006,20.62423 -13.16295,-0.0206 -26.32591,-0.0411 -39.48884,-0.0617 -0.003,8.59343 -0.005,17.18688 -0.008,25.7803 13.16295,0.0206 26.3259,0.0411 39.48885,0.0617 -0.002,6.87476 -0.004,13.74949 -0.006,20.62425 9.29478,-10.29759 18.58954,-20.59519 27.8843,-30.8928 z"
       id="path4200-7"
       inkscape:connector-curvature="0" />
    <path
       style="fill:#000000;fill-rule:evenodd;stroke:#000000;stroke-width:0.6921525px;stroke-linecap:butt;stroke-linejoin:miter;stroke-opacity:1"
       d="m 584.31656,719.79076 c -9.28766,-12.04533 -18.57534,-24.09064 -27.86302,-36.13599 -0.002,6.87477 -0.004,13.74949 -0.006,20.62423 -13.16294,-0.0206 -26.3259,-0.0411 -39.48883,-0.0617 -0.003,8.59343 -0.005,17.18687 -0.008,25.7803 13.16295,0.0206 26.32589,0.0411 39.48885,0.0617 -0.002,6.87476 -0.004,13.74949 -0.006,20.62425 9.29478,-10.29759 18.58953,-20.59519 27.8843,-30.8928 z"
       id="path4200-5"
       inkscape:connector-curvature="0" />
    <rect
       style="opacity:1;fill:#4d4d4d;fill-opacity:1;fill-rule:nonzero;stroke:none;stroke-width:2.9000001;stroke-linecap:round;stroke-linejoin:round;stroke-miterlimit:4;stroke-dasharray:none;stroke-dashoffset:0;stroke-opacity:1"
       id="rect4311"
       width="108.30664"
       height="45.046455"
       x="10.073783"
       y="694.55518" />
    <text
       xml:space="preserve"
       style="font-style:normal;font-weight:normal;font-size:27.96109962px;line-height:125%;font-family:Sans;letter-spacing:0px;word-spacing:0px;fill:#ffffff;fill-opacity:1;stroke:none;stroke-width:1px;stroke-linecap:butt;stroke-linejoin:miter;stroke-opacity:1"
       x="17.225006"
       y="724.69519"
       id="text4313"
       sodipodi:linespacing="125%"><tspan
         sodipodi:role="line"
         id="tspan4315"
         x="17.225006"
         y="724.69519"
         style="font-style:normal;font-variant:normal;font-weight:normal;font-stretch:normal;font-family:'DejaVu Sans';-inkscape-font-specification:'DejaVu Sans';fill:#ffffff">Besoin</tspan></text>
    <rect
       style="opacity:1;fill:#4d4d4d;fill-opacity:1;fill-rule:nonzero;stroke:none;stroke-width:2.9000001;stroke-linecap:round;stroke-linejoin:round;stroke-miterlimit:4;stroke-dasharray:none;stroke-dashoffset:0;stroke-opacity:1"
       id="rect4311-6"
       width="95.949455"
       height="45.046455"
       x="195.25146"
       y="695.02509" />
    <text
       xml:space="preserve"
       style="font-style:normal;font-weight:normal;font-size:27.96109962px;line-height:125%;font-family:Sans;letter-spacing:0px;word-spacing:0px;fill:#ffffff;fill-opacity:1;stroke:none;stroke-width:1px;stroke-linecap:butt;stroke-linejoin:miter;stroke-opacity:1"
       x="202.40271"
       y="725.1651"
       id="text4313-6"
       sodipodi:linespacing="125%"><tspan
         sodipodi:role="line"
         id="tspan4315-5"
         x="202.40271"
         y="725.1651"
         style="font-style:normal;font-variant:normal;font-weight:normal;font-stretch:normal;font-family:'DejaVu Sans';-inkscape-font-specification:'DejaVu Sans';fill:#ffffff">Projet</tspan></text>
    <rect
       style="opacity:1;fill:#4d4d4d;fill-opacity:1;fill-rule:nonzero;stroke:none;stroke-width:2.9000001;stroke-linecap:round;stroke-linejoin:round;stroke-miterlimit:4;stroke-dasharray:none;stroke-dashoffset:0;stroke-opacity:1"
       id="rect4311-9"
       width="116.88794"
       height="45.046455"
       x="382.11639"
       y="694.81628" />
    <text
       xml:space="preserve"
       style="font-style:normal;font-weight:normal;font-size:27.96109962px;line-height:125%;font-family:Sans;letter-spacing:0px;word-spacing:0px;fill:#ffffff;fill-opacity:1;stroke:none;stroke-width:1px;stroke-linecap:butt;stroke-linejoin:miter;stroke-opacity:1"
       x="389.26764"
       y="724.9563"
       id="text4313-4"
       sodipodi:linespacing="125%"><tspan
         sodipodi:role="line"
         id="tspan4315-4"
         x="389.26764"
         y="724.9563"
         style="font-style:normal;font-variant:normal;font-weight:normal;font-stretch:normal;font-family:'DejaVu Sans';-inkscape-font-specification:'DejaVu Sans';fill:#ffffff">Publier</tspan></text>
    <flowRoot
       xml:space="preserve"
       id="flowRoot4348"
       style="font-style:normal;font-weight:normal;font-size:25.62070656px;line-height:125%;font-family:Sans;letter-spacing:0px;word-spacing:0px;fill:#000000;fill-opacity:1;stroke:none;stroke-width:1px;stroke-linecap:butt;stroke-linejoin:miter;stroke-opacity:1"
       transform="matrix(1.023006,0,0,1.023006,99.360972,-20.55207)"><flowRegion
         id="flowRegion4350"><rect
           id="rect4352"
           width="179.34494"
           height="64.051765"
           x="430.80743"
           y="446.02234" /></flowRegion><flowPara
         id="flowPara4354"
         style="text-align:center;text-anchor:middle">Contexte</flowPara><flowPara
         id="flowPara4356"
         style="text-align:center;text-anchor:middle">acteurs</flowPara></flowRoot>    <flowRoot
       xml:space="preserve"
       id="flowRoot4348-0"
       style="font-style:normal;font-weight:normal;font-size:25.62070656px;line-height:125%;font-family:Sans;letter-spacing:0px;word-spacing:0px;fill:#000000;fill-opacity:1;stroke:none;stroke-width:1px;stroke-linecap:butt;stroke-linejoin:miter;stroke-opacity:1"
       transform="matrix(1.023006,0,0,1.023006,386.41538,-26.451279)"><flowRegion
         id="flowRegion4350-1"><rect
           id="rect4352-5"
           width="209.6951"
           height="67.964272"
           x="430.80743"
           y="446.02234" /></flowRegion><flowPara
         id="flowPara4354-6"
         style="text-align:center;text-anchor:middle">Contexte</flowPara><flowPara
         id="flowPara4356-4"
         style="text-align:center;text-anchor:middle">technologique</flowPara></flowRoot>    <flowRoot
       xml:space="preserve"
       id="flowRoot4348-9"
       style="font-style:normal;font-weight:normal;font-size:25.62070656px;line-height:125%;font-family:Sans;letter-spacing:0px;word-spacing:0px;fill:#000000;fill-opacity:1;stroke:none;stroke-width:1px;stroke-linecap:butt;stroke-linejoin:miter;stroke-opacity:1"
       transform="matrix(1.023006,0,0,1.023006,277.93008,518.33843)"><flowRegion
         id="flowRegion4350-6"><rect
           id="rect4352-4"
           width="123.61887"
           height="73.710403"
           x="430.80743"
           y="446.02234" /></flowRegion><flowPara
         id="flowPara4356-9"
         style="text-align:center;text-anchor:middle">Besoins</flowPara><flowPara
         id="flowPara4401"
         style="text-align:center;text-anchor:middle">t+x</flowPara></flowRoot>    <flowRoot
       xml:space="preserve"
       id="flowRoot4348-4"
       style="font-style:normal;font-weight:normal;font-size:25.62070656px;line-height:125%;font-family:Sans;letter-spacing:0px;word-spacing:0px;fill:#000000;fill-opacity:1;stroke:none;stroke-width:1px;stroke-linecap:butt;stroke-linejoin:miter;stroke-opacity:1"
       transform="matrix(0.86569018,0,0,0.86569018,-418.61678,-48.222168)"><flowRegion
         id="flowRegion4350-4"><rect
           id="rect4352-7"
           width="408.98441"
           height="61.18758"
           x="430.80743"
           y="446.02234" /></flowRegion><flowPara
         id="flowPara4356-0"
         style="text-align:center;text-anchor:middle">Démarche individuelle</flowPara></flowRoot>    <flowRoot
       xml:space="preserve"
       id="flowRoot4348-4-8"
       style="font-style:normal;font-weight:normal;font-size:25.62070656px;line-height:125%;font-family:Sans;letter-spacing:0px;word-spacing:0px;fill:#000000;fill-opacity:1;stroke:none;stroke-width:1px;stroke-linecap:butt;stroke-linejoin:miter;stroke-opacity:1"
       transform="matrix(0.86569018,0,0,0.86569018,12.030669,-46.431372)"><flowRegion
         id="flowRegion4350-4-4"><rect
           id="rect4352-7-8"
           width="408.98441"
           height="61.18758"
           x="430.80743"
           y="446.02234" /></flowRegion><flowPara
         id="flowPara4356-0-9"
         style="text-align:center;text-anchor:middle">Démarche collective</flowPara></flowRoot>    <flowRoot
       xml:space="preserve"
       id="flowRoot4348-9-9"
       style="font-style:normal;font-weight:normal;font-size:25.62070656px;line-height:125%;font-family:Sans;letter-spacing:0px;word-spacing:0px;fill:#000000;fill-opacity:1;stroke:none;stroke-width:1px;stroke-linecap:butt;stroke-linejoin:miter;stroke-opacity:1"
       transform="matrix(1.023006,0,0,1.023006,-436.22683,287.1754)"><flowRegion
         id="flowRegion4350-6-2"><rect
           id="rect4352-4-4"
           width="104.43107"
           height="34.415974"
           x="430.80743"
           y="446.02234" /></flowRegion><flowPara
         id="flowPara4401-8"
         style="text-align:center;text-anchor:middle">t+0</flowPara></flowRoot>    <text
       xml:space="preserve"
       style="font-style:normal;font-weight:normal;font-size:184.6758728px;line-height:125%;font-family:Sans;letter-spacing:0px;word-spacing:0px;fill:#4d4d4d;fill-opacity:1;stroke:none;stroke-width:1px;stroke-linecap:butt;stroke-linejoin:miter;stroke-opacity:1"
       x="1300.0371"
       y="-38.266129"
       id="text4485"
       sodipodi:linespacing="125%"
       transform="matrix(0,0.59574075,-1.6785825,0,0,0)"><tspan
         sodipodi:role="line"
         id="tspan4487"
         x="1300.0371"
         y="-38.266129"
         style="font-style:normal;font-variant:normal;font-weight:normal;font-stretch:normal;font-family:'Asana Math';-inkscape-font-specification:'Asana Math';fill:#4d4d4d">}</tspan></text>
    <flowRoot
       xml:space="preserve"
       id="flowRoot4348-9-9-1"
       style="font-style:normal;font-weight:normal;font-size:25.62070656px;line-height:125%;font-family:Sans;letter-spacing:0px;word-spacing:0px;fill:#000000;fill-opacity:1;stroke:none;stroke-width:1px;stroke-linecap:butt;stroke-linejoin:miter;stroke-opacity:1"
       transform="matrix(1.023006,0,0,1.023006,-341.88178,352.68411)"><flowRegion
         id="flowRegion4350-6-2-7"><rect
           id="rect4352-4-4-2"
           width="104.43107"
           height="34.415974"
           x="430.80743"
           y="446.02234" /></flowRegion><flowPara
         id="flowPara4401-8-0"
         style="text-align:center;text-anchor:middle">Départ</flowPara></flowRoot>    <flowRoot
       xml:space="preserve"
       id="flowRoot4348-9-9-1-7"
       style="font-style:normal;font-weight:normal;font-size:25.62070656px;line-height:125%;font-family:Sans;letter-spacing:0px;word-spacing:0px;fill:#ffffff;fill-opacity:1;stroke:none;stroke-width:1px;stroke-linecap:butt;stroke-linejoin:miter;stroke-opacity:1"
       transform="matrix(1.023006,0,0,1.023006,169.62121,114.46986)"><flowRegion
         id="flowRegion4350-6-2-7-0"><rect
           id="rect4352-4-4-2-8"
           width="320.30423"
           height="46.344955"
           x="430.80743"
           y="446.02234"
           style="fill:#ffffff" /></flowRegion><flowPara
         id="flowPara4401-8-0-6"
         style="text-align:center;text-anchor:middle;fill:#ffffff">Construction</flowPara></flowRoot>    <flowRoot
       xml:space="preserve"
       id="flowRoot4348-9-9-1-7-7"
       style="font-style:normal;font-weight:normal;font-size:25.62070656px;line-height:125%;font-family:Sans;letter-spacing:0px;word-spacing:0px;fill:#ffffff;fill-opacity:1;stroke:none;stroke-width:1px;stroke-linecap:butt;stroke-linejoin:miter;stroke-opacity:1"
       transform="matrix(1.023006,0,0,1.023006,274.84469,161.23586)"><flowRegion
         id="flowRegion4350-6-2-7-0-9"><rect
           id="rect4352-4-4-2-8-1"
           width="320.30423"
           height="46.344955"
           x="430.80743"
           y="446.02234"
           style="fill:#ffffff" /></flowRegion><flowPara
         id="flowPara4401-8-0-6-1"
         style="text-align:center;text-anchor:middle;fill:#ffffff">Promotion</flowPara></flowRoot>    <flowRoot
       xml:space="preserve"
       id="flowRoot4348-9-9-1-7-1"
       style="font-style:normal;font-weight:normal;font-size:25.62070656px;line-height:125%;font-family:Sans;letter-spacing:0px;word-spacing:0px;fill:#ffffff;fill-opacity:1;stroke:none;stroke-width:1px;stroke-linecap:butt;stroke-linejoin:miter;stroke-opacity:1"
       transform="matrix(1.023006,0,0,1.023006,60.013423,248.92208)"><flowRegion
         id="flowRegion4350-6-2-7-0-7"><rect
           id="rect4352-4-4-2-8-17"
           width="320.30423"
           height="46.344955"
           x="430.80743"
           y="446.02234"
           style="fill:#ffffff" /></flowRegion><flowPara
         id="flowPara4401-8-0-6-9"
         style="text-align:center;text-anchor:middle;fill:#ffffff">Analyse</flowPara></flowRoot>    <flowRoot
       xml:space="preserve"
       id="flowRoot4348-9-9-1-7-7-6"
       style="font-style:normal;font-weight:normal;font-size:25.62070656px;line-height:125%;font-family:Sans;letter-spacing:0px;word-spacing:0px;fill:#ffffff;fill-opacity:1;stroke:none;stroke-width:1px;stroke-linecap:butt;stroke-linejoin:miter;stroke-opacity:1"
       transform="matrix(1.023006,0,0,1.023006,115.54804,354.14555)"><flowRegion
         id="flowRegion4350-6-2-7-0-9-6"><rect
           id="rect4352-4-4-2-8-1-2"
           width="320.30423"
           height="46.344955"
           x="430.80743"
           y="446.02234"
           style="fill:#ffffff" /></flowRegion><flowPara
         id="flowPara4401-8-0-6-1-7"
         style="text-align:center;text-anchor:middle;fill:#ffffff">Mesure</flowPara></flowRoot>    <flowRoot
       xml:space="preserve"
       id="flowRoot4348-9-9-1-7-7-6-7"
       style="font-style:normal;font-weight:normal;font-size:25.62070656px;line-height:125%;font-family:Sans;letter-spacing:0px;word-spacing:0px;fill:#ffffff;fill-opacity:1;stroke:none;stroke-width:1px;stroke-linecap:butt;stroke-linejoin:miter;stroke-opacity:1"
       transform="matrix(1.023006,0,0,1.023006,263.15318,333.68543)"><flowRegion
         id="flowRegion4350-6-2-7-0-9-6-3"><rect
           id="rect4352-4-4-2-8-1-2-4"
           width="320.30423"
           height="46.344955"
           x="430.80743"
           y="446.02234"
           style="fill:#ffffff" /></flowRegion><flowPara
         id="flowPara4401-8-0-6-1-7-7"
         style="text-align:center;text-anchor:middle;fill:#ffffff">Animation</flowPara></flowRoot>    <flowRoot
       xml:space="preserve"
       id="flowRoot4348-9-9-1-7-7-6-1"
       style="font-style:normal;font-weight:normal;font-size:25.62070656px;line-height:125%;font-family:Sans;letter-spacing:0px;word-spacing:0px;fill:#000000;fill-opacity:1;stroke:none;stroke-width:1px;stroke-linecap:butt;stroke-linejoin:miter;stroke-opacity:1"
       transform="matrix(1.023006,0,0,1.023006,184.23557,241.61489)"><flowRegion
         id="flowRegion4350-6-2-7-0-9-6-9"><rect
           id="rect4352-4-4-2-8-1-2-0"
           width="320.30423"
           height="46.344955"
           x="430.80743"
           y="446.02234" /></flowRegion><flowPara
         id="flowPara4401-8-0-6-1-7-5"
         style="text-align:center;text-anchor:middle">Pilotage</flowPara></flowRoot>  </g>
</svg>
