%!PS-Adobe-3.0 EPSF-3.0
%%Creator: cairo 1.13.1 (http://cairographics.org)
%%CreationDate: Mon May  9 19:06:41 2016
%%Pages: 1
%%DocumentData: Clean7Bit
%%LanguageLevel: 2
%%BoundingBox: 2 12 78 77
%%EndComments
%%BeginProlog
save
50 dict begin
/q { gsave } bind def
/Q { grestore } bind def
/cm { 6 array astore concat } bind def
/w { setlinewidth } bind def
/J { setlinecap } bind def
/j { setlinejoin } bind def
/M { setmiterlimit } bind def
/d { setdash } bind def
/m { moveto } bind def
/l { lineto } bind def
/c { curveto } bind def
/h { closepath } bind def
/re { exch dup neg 3 1 roll 5 3 roll moveto 0 rlineto
      0 exch rlineto 0 rlineto closepath } bind def
/S { stroke } bind def
/f { fill } bind def
/f* { eofill } bind def
/n { newpath } bind def
/W { clip } bind def
/W* { eoclip } bind def
/BT { } bind def
/ET { } bind def
/pdfmark where { pop globaldict /?pdfmark /exec load put }
    { globaldict begin /?pdfmark /pop load def /pdfmark
    /cleartomark load def end } ifelse
/BDC { mark 3 1 roll /BDC pdfmark } bind def
/EMC { mark /EMC pdfmark } bind def
/cairo_store_point { /cairo_point_y exch def /cairo_point_x exch def } def
/Tj { show currentpoint cairo_store_point } bind def
/TJ {
  {
    dup
    type /stringtype eq
    { show } { -0.001 mul 0 cairo_font_matrix dtransform rmoveto } ifelse
  } forall
  currentpoint cairo_store_point
} bind def
/cairo_selectfont { cairo_font_matrix aload pop pop pop 0 0 6 array astore
    cairo_font exch selectfont cairo_point_x cairo_point_y moveto } bind def
/Tf { pop /cairo_font exch def /cairo_font_matrix where
      { pop cairo_selectfont } if } bind def
/Td { matrix translate cairo_font_matrix matrix concatmatrix dup
      /cairo_font_matrix exch def dup 4 get exch 5 get cairo_store_point
      /cairo_font where { pop cairo_selectfont } if } bind def
/Tm { 2 copy 8 2 roll 6 array astore /cairo_font_matrix exch def
      cairo_store_point /cairo_font where { pop cairo_selectfont } if } bind def
/g { setgray } bind def
/rg { setrgbcolor } bind def
/d1 { setcachedevice } bind def
%%EndProlog
%%BeginSetup
%%EndSetup
%%Page: 1 1
%%BeginPageSetup
%%PageBoundingBox: 2 12 78 77
%%EndPageSetup
q 2 12 76 65 rectclip q
0 g
31.773 68.094 m 31.773 56.539 l 48.016 56.539 l 48.016 68.094 l 48.016 
72.906 44.387 76.809 39.898 76.809 c 35.414 76.809 31.773 72.906 31.773 
68.094 c h
31.773 68.094 m f
31.773 37.102 m 31.773 52.312 l 48.016 52.312 l 48.016 37.102 l 48.016 
32.289 44.387 28.387 39.898 28.387 c 35.414 28.387 31.773 32.289 31.773 
37.102 c h
31.773 37.102 m f
27.848 56.539 m 22.973 56.539 l 20.801 56.539 19.035 54.641 19.035 52.312
 c 19.035 49.992 20.801 48.09 22.973 48.09 c 23.301 48.09 23.613 48.141 
23.922 48.207 c 23.922 37.102 l 23.922 28.605 29.727 21.379 37.566 20.156
 c 37.566 18.133 l 24.492 18.133 l 22.359 18.133 20.621 16.281 20.621 13.988
 c 20.621 12.051 l 59.168 12.051 l 59.168 13.988 l 59.168 16.281 57.434 
18.133 55.297 18.133 c 42.223 18.133 l 42.223 20.156 l 50.062 21.379 55.863
 28.605 55.863 37.102 c 55.863 48.207 l 57.984 47.66 60.109 49.035 60.637
 51.297 c 61.152 53.57 59.871 55.863 57.762 56.418 c 57.449 56.492 57.137
 56.539 56.809 56.539 c 51.941 56.539 l 51.941 37.102 l 51.941 29.961 46.547
 24.176 39.898 24.176 c 33.242 24.176 27.848 29.961 27.848 37.102 c 27.848
 56.539 l f
13.184 64.855 m 13.664 65.766 14.723 66.086 15.566 65.582 c 16.402 65.086
 16.715 63.941 16.242 63.031 c 12.773 56.379 12.773 48.262 16.242 41.598
 c 16.715 40.691 16.402 39.555 15.566 39.043 c 14.723 38.543 13.664 38.867
 13.184 39.777 c 9.133 47.566 9.133 57.066 13.184 64.855 c h
13.184 64.855 m f
6.336 68.961 m 6.809 69.867 7.879 70.191 8.723 69.688 c 9.559 69.18 9.863
 68.047 9.391 67.137 c 4.602 57.926 4.602 46.707 9.391 37.492 c 9.863 36.586
 9.559 35.449 8.723 34.934 c 7.879 34.438 6.809 34.762 6.336 35.668 c 0.953
 46.012 0.953 58.613 6.336 68.961 c h
6.336 68.961 m f
66.598 64.855 m 66.137 65.766 65.066 66.086 64.23 65.582 c 63.379 65.086
 63.082 63.941 63.547 63.031 c 67.016 56.379 67.016 48.262 63.547 41.598
 c 63.082 40.691 63.379 39.555 64.23 39.043 c 65.066 38.543 66.137 38.867
 66.598 39.777 c 70.664 47.566 70.664 57.066 66.598 64.855 c h
66.598 64.855 m f
73.449 68.961 m 72.98 69.867 71.91 70.191 71.074 69.688 c 70.23 69.18 69.926
 68.047 70.398 67.137 c 75.195 57.926 75.195 46.707 70.398 37.492 c 69.926
 36.586 70.23 35.449 71.074 34.934 c 71.91 34.438 72.98 34.762 73.449 35.668
 c 78.836 46.012 78.836 58.613 73.449 68.961 c h
73.449 68.961 m f
Q Q
showpage
%%Trailer
end restore
%%EOF
