%!PS-Adobe-3.0 EPSF-3.0
%%Creator: cairo 1.13.1 (http://cairographics.org)
%%CreationDate: Mon May  9 22:48:04 2016
%%Pages: 1
%%DocumentData: Clean7Bit
%%LanguageLevel: 2
%%BoundingBox: 11 12 71 79
%%EndComments
%%BeginProlog
save
50 dict begin
/q { gsave } bind def
/Q { grestore } bind def
/cm { 6 array astore concat } bind def
/w { setlinewidth } bind def
/J { setlinecap } bind def
/j { setlinejoin } bind def
/M { setmiterlimit } bind def
/d { setdash } bind def
/m { moveto } bind def
/l { lineto } bind def
/c { curveto } bind def
/h { closepath } bind def
/re { exch dup neg 3 1 roll 5 3 roll moveto 0 rlineto
      0 exch rlineto 0 rlineto closepath } bind def
/S { stroke } bind def
/f { fill } bind def
/f* { eofill } bind def
/n { newpath } bind def
/W { clip } bind def
/W* { eoclip } bind def
/BT { } bind def
/ET { } bind def
/pdfmark where { pop globaldict /?pdfmark /exec load put }
    { globaldict begin /?pdfmark /pop load def /pdfmark
    /cleartomark load def end } ifelse
/BDC { mark 3 1 roll /BDC pdfmark } bind def
/EMC { mark /EMC pdfmark } bind def
/cairo_store_point { /cairo_point_y exch def /cairo_point_x exch def } def
/Tj { show currentpoint cairo_store_point } bind def
/TJ {
  {
    dup
    type /stringtype eq
    { show } { -0.001 mul 0 cairo_font_matrix dtransform rmoveto } ifelse
  } forall
  currentpoint cairo_store_point
} bind def
/cairo_selectfont { cairo_font_matrix aload pop pop pop 0 0 6 array astore
    cairo_font exch selectfont cairo_point_x cairo_point_y moveto } bind def
/Tf { pop /cairo_font exch def /cairo_font_matrix where
      { pop cairo_selectfont } if } bind def
/Td { matrix translate cairo_font_matrix matrix concatmatrix dup
      /cairo_font_matrix exch def dup 4 get exch 5 get cairo_store_point
      /cairo_font where { pop cairo_selectfont } if } bind def
/Tm { 2 copy 8 2 roll 6 array astore /cairo_font_matrix exch def
      cairo_store_point /cairo_font where { pop cairo_selectfont } if } bind def
/g { setgray } bind def
/rg { setrgbcolor } bind def
/d1 { setcachedevice } bind def
%%EndProlog
%%BeginSetup
%%EndSetup
%%Page: 1 1
%%BeginPageSetup
%%PageBoundingBox: 11 12 71 79
%%EndPageSetup
q 11 12 60 67 rectclip q
1 g
14.262 62.922 m 40.391 76.105 l 67.836 63.281 l 68.434 29.961 l 40.75 14.98
 l 12.824 29.723 l h
14.262 62.922 m f*
0 g
0.8 w
0 J
0 j
[] 0.0 d
4 M q 1 0 0 -1 0 80 cm
14.262 17.078 m 40.391 3.895 l 67.836 16.719 l 68.434 50.039 l 40.75 65.02
 l 12.824 50.277 l h
14.262 17.078 m S Q
70.203 63.746 m 70.199 63.762 70.195 63.777 70.195 63.797 c 70.184 63.871
 70.164 63.949 70.145 64.023 c 70.141 64.035 70.137 64.047 70.133 64.062
 c 70.109 64.145 70.078 64.227 70.043 64.309 c 70.02 64.355 l 70 64.395 
69.984 64.438 69.961 64.477 c 69.949 64.496 69.934 64.516 69.922 64.539 
c 69.91 64.559 69.898 64.582 69.883 64.602 c 69.84 64.668 69.793 64.734 
69.742 64.793 c 69.738 64.797 69.734 64.805 69.73 64.809 c 69.672 64.879
 69.609 64.941 69.547 65 c 69.535 65.012 69.52 65.02 69.508 65.031 c 69.449
 65.082 69.391 65.129 69.328 65.172 c 69.312 65.18 69.301 65.191 69.289 
65.199 c 69.215 65.246 69.137 65.289 69.059 65.328 c 69.055 65.332 69.051
 65.336 69.047 65.34 c 55.328 71.926 l 41.609 78.516 l 41.043 78.789 40.383
 78.789 39.816 78.516 c 26.098 71.926 l 12.379 65.34 l 12.375 65.336 12.371
 65.332 12.367 65.332 c 12.285 65.289 12.211 65.246 12.137 65.199 c 12.121
 65.191 12.109 65.184 12.098 65.172 c 12.035 65.129 11.977 65.082 11.918
 65.031 c 11.902 65.02 11.891 65.012 11.879 65 c 11.812 64.941 11.75 64.879
 11.695 64.809 c 11.688 64.805 11.684 64.797 11.68 64.789 c 11.629 64.73
 11.586 64.668 11.543 64.605 c 11.531 64.582 11.516 64.559 11.504 64.539
 c 11.492 64.516 11.477 64.496 11.465 64.477 c 11.445 64.438 11.426 64.398
 11.406 64.359 c 11.398 64.34 11.391 64.324 11.383 64.305 c 11.348 64.227
 11.316 64.145 11.293 64.062 c 11.289 64.047 11.285 64.035 11.281 64.02 
c 11.262 63.945 11.246 63.871 11.234 63.797 c 11.23 63.777 11.227 63.762
 11.223 63.742 c 11.211 63.652 11.207 63.562 11.207 63.477 c 11.207 29.645
 l 11.207 28.891 11.613 28.199 12.273 27.832 c 25.598 20.441 l 25.715 20.336
 25.848 20.234 25.992 20.156 c 39.707 12.551 l 39.711 12.547 39.711 12.547
 39.711 12.547 c 39.785 12.508 39.859 12.473 39.938 12.441 c 39.953 12.434
 39.965 12.43 39.977 12.426 c 40.039 12.402 40.102 12.383 40.168 12.363 
c 40.188 12.359 40.211 12.352 40.23 12.348 c 40.289 12.336 40.348 12.324
 40.41 12.312 c 40.43 12.312 40.453 12.305 40.473 12.305 c 40.551 12.293
 40.629 12.289 40.711 12.289 c 40.793 12.289 40.875 12.297 40.953 12.305
 c 40.973 12.305 40.992 12.312 41.016 12.312 c 41.074 12.324 41.137 12.332
 41.195 12.348 c 41.215 12.352 41.238 12.359 41.258 12.363 c 41.324 12.383
 41.387 12.402 41.449 12.426 c 41.461 12.43 41.477 12.438 41.488 12.441 
c 41.566 12.473 41.641 12.508 41.715 12.547 c 41.715 12.547 41.715 12.547
 41.719 12.551 c 55.438 20.156 l 55.582 20.238 55.711 20.336 55.828 20.445
 c 69.156 27.832 l 69.812 28.199 70.223 28.891 70.223 29.645 c 70.223 63.473
 l 70.223 63.566 70.215 63.656 70.203 63.746 c h
15.348 59.953 m 24.922 54.645 l 24.922 42.434 l 15.348 47.742 l h
26.996 67.762 m 36.203 63.34 l 26.996 58.23 l 17.785 63.34 l h
54.43 67.762 m 63.641 63.34 l 54.43 58.23 l 45.223 63.34 l h
40.715 33.676 m 31.266 38.914 l 40.715 44.156 l 50.16 38.914 l h
52.359 42.434 m 42.785 47.742 l 42.785 59.953 l 52.359 54.645 l h
38.641 47.742 m 29.066 42.434 l 29.066 54.645 l 38.641 59.953 l h
29.066 35.398 m 38.641 30.09 l 38.641 17.879 l 29.066 23.188 l h
42.785 30.09 m 52.359 35.398 l 52.359 23.188 l 42.785 17.879 l h
56.504 42.434 m 56.504 54.645 l 66.078 59.953 l 66.078 47.742 l h
40.715 74.352 m 49.648 70.059 l 40.715 65.77 l 31.781 70.059 l h
15.348 43.004 m 24.922 37.695 l 24.922 25.555 l 15.348 30.863 l h
56.504 25.555 m 56.504 37.695 l 66.078 43.004 l 66.078 30.863 l h
56.504 25.555 m f
q 1 0 0 -1 0 80 cm
15.699 16.48 m 41.109 3.895 l 66.156 16 l 68.434 22.234 l 68.074 50.996
 l 41.109 65.141 l 13.422 50.277 l 13.422 18.996 l h
15.699 16.48 m S Q
Q Q
showpage
%%Trailer
end restore
%%EOF
