<?xml version="1.0" encoding="UTF-8" standalone="no"?>
<svg
   xmlns:dc="http://purl.org/dc/elements/1.1/"
   xmlns:cc="http://creativecommons.org/ns#"
   xmlns:rdf="http://www.w3.org/1999/02/22-rdf-syntax-ns#"
   xmlns:svg="http://www.w3.org/2000/svg"
   xmlns="http://www.w3.org/2000/svg"
   xmlns:sodipodi="http://sodipodi.sourceforge.net/DTD/sodipodi-0.dtd"
   xmlns:inkscape="http://www.inkscape.org/namespaces/inkscape"
   version="1.1"
   x="0px"
   y="0px"
   viewBox="0 0 100 100"
   enable-background="new 0 0 100 100"
   xml:space="preserve"
   id="svg2"
   inkscape:version="0.91 r"
   sodipodi:docname="noun_37720_cc.svg"
   width="100"
   height="100"><metadata
     id="metadata14"><rdf:RDF><cc:Work
         rdf:about=""><dc:format>image/svg+xml</dc:format><dc:type
           rdf:resource="http://purl.org/dc/dcmitype/StillImage" /><dc:title></dc:title></cc:Work></rdf:RDF></metadata><defs
     id="defs12" /><sodipodi:namedview
     pagecolor="#ffffff"
     bordercolor="#666666"
     borderopacity="1"
     objecttolerance="10"
     gridtolerance="10"
     guidetolerance="10"
     inkscape:pageopacity="0"
     inkscape:pageshadow="2"
     inkscape:window-width="1679"
     inkscape:window-height="877"
     id="namedview10"
     showgrid="false"
     inkscape:zoom="5.3400704"
     inkscape:cx="39.804832"
     inkscape:cy="65.040845"
     inkscape:window-x="0"
     inkscape:window-y="0"
     inkscape:window-maximized="0"
     inkscape:current-layer="svg2" /><path
     style="opacity:1;fill:#ffffff;fill-opacity:1;fill-rule:nonzero;stroke:none;stroke-width:2.5;stroke-linecap:round;stroke-linejoin:round;stroke-miterlimit:4;stroke-dasharray:2.5, 2.50000000000000000;stroke-dashoffset:0;stroke-opacity:1"
     d="m 87.296091,17.591711 c -3.6059,0.147931 -6.247827,4.478591 -4.437993,7.69693 1.326599,3.056347 5.670242,3.77645 8.069689,1.548961 3.086703,-2.52934 1.737772,-8.390294 -2.291766,-9.112821 -0.436454,-0.112347 -0.889887,-0.15665 -1.33993,-0.13307 z"
     id="path4161"
     inkscape:connector-curvature="0" /><path
     style="opacity:1;fill:#ffffff;fill-opacity:1;fill-rule:nonzero;stroke:none;stroke-width:2.5;stroke-linecap:round;stroke-linejoin:round;stroke-miterlimit:4;stroke-dasharray:2.5, 2.50000000000000000;stroke-dashoffset:0;stroke-opacity:1"
     d="m 49.847871,24.699556 c -6.966239,0.262157 -12.070178,7.936772 -8.57376,13.640177 2.562857,5.416331 10.954343,6.692467 15.589835,2.745004 5.963202,-4.48239 3.357202,-14.868928 -4.427463,-16.14936 -0.843186,-0.199097 -1.719173,-0.277609 -2.588612,-0.235821 z"
     id="path4161-4"
     inkscape:connector-curvature="0" /><path
     style="opacity:1;fill:#ffffff;fill-opacity:1;fill-rule:nonzero;stroke:none;stroke-width:2.5;stroke-linecap:round;stroke-linejoin:round;stroke-miterlimit:4;stroke-dasharray:2.5, 2.50000000000000000;stroke-dashoffset:0;stroke-opacity:1"
     d="m 13.229656,37.45407 c -3.4788685,-0.06442 -5.9893387,3.724945 -4.9795974,6.950957 0.8263841,3.778896 6.1054034,5.399183 8.8239774,2.575333 2.935426,-2.502099 2.119871,-7.939539 -1.617584,-9.181243 -0.709768,-0.261629 -1.471502,-0.374524 -2.226796,-0.345047 z"
     id="path4163"
     inkscape:connector-curvature="0" /><path
     d="m 87.304984,17.954648 c -2.69376,0 -4.877537,2.209676 -4.877537,4.936401 0,2.724689 2.183777,4.934366 4.877537,4.934366 2.693761,0 4.876532,-2.209677 4.876532,-4.934366 -0.001,-2.726725 -2.183777,-4.936401 -4.876532,-4.936401 z M 13.225689,37.714963 c -2.696779,0 -4.8815612,2.210694 -4.8815612,4.939454 0,2.728762 2.1847822,4.939455 4.8815612,4.939455 2.695772,0 4.882566,-2.210693 4.882566,-4.939455 -0.001,-2.72876 -2.186794,-4.939454 -4.882566,-4.939454 z m -1.059322,25.528314 c 3.793193,0 6.936584,2.809168 7.513962,6.480425 0.06438,-0.0081 0.130765,-0.01222 0.198159,-0.01222 3.533675,0.05395 5.622899,-19.458528 7.722181,-24.695185 1.431375,-3.572529 2.866773,-7.152183 4.896649,-9.516567 L 20.92071,44.032534 c -0.05298,0.03905 -0.138812,-0.0061 -0.206206,-0.01425 -0.63572,3.600011 -3.747928,6.333861 -7.489821,6.333861 -4.2025886,0 -7.6085159,-3.447338 -7.6085159,-7.69875 0,-4.25243 3.4069332,-7.69875 7.6085159,-7.69875 3.741893,0 6.853095,2.734868 7.489821,6.335896 0.06639,-0.0112 0.151572,0.0224 0.206206,-0.01628 L 32.973102,32.741458 C 31.218838,30.55621 29.871958,27.327703 28.492889,24.024895 26.207518,18.548035 23.82357,12.834022 19.860382,12.834022 c -0.04023,0 -0.07946,-0.002 -0.118694,-0.0051 -0.641755,3.644793 -3.790175,6.412232 -7.576327,6.412232 -4.2488593,0 -7.695022,-3.486015 -7.695022,-7.7873 0,-4.3012843 3.4461627,-7.7862817 7.696028,-7.7862817 3.787157,0 6.934572,2.7684558 7.576327,6.4132497 0.03923,-0.0041 0.07946,-0.0061 0.118694,-0.0061 5.759699,0 8.50476,6.578136 11.135149,12.883497 1.429363,3.423929 2.818491,6.754219 4.484236,8.507913 0.540161,-2.994411 1.976565,-5.672281 4.018512,-7.739462 2.628378,-2.660568 6.260629,-4.305357 10.272099,-4.305357 4.01147,0 7.643722,1.644789 10.2721,4.305357 2.272294,2.30026 3.795205,5.35574 4.167382,8.763384 3.292262,-0.741987 4.773931,-2.98118 6.200276,-5.134876 2.002718,-3.02698 3.917923,-5.918591 9.213909,-5.84022 0.06538,0.001 0.130765,0.0071 0.19313,0.01628 0.634713,-3.601028 3.74491,-6.335896 7.485797,-6.335896 4.199571,0 7.603486,3.444284 7.603486,7.694679 0,4.249376 -3.403915,7.69366 -7.603486,7.69366 -3.741893,0 -6.85209,-2.734868 -7.485797,-6.336913 -0.07343,0.01222 -0.147865,0.01832 -0.226324,0.0173 -3.826388,-0.057 -5.340245,2.230033 -6.924514,4.622914 -1.288539,1.948098 -2.617313,3.952175 -4.904696,5.23564 2.287383,1.282446 3.615151,3.286522 4.904696,5.23462 1.584269,2.3939 2.833295,14.135178 6.659683,14.079199 0.04526,0 0.09053,0.002 0.134788,0.0061 0.639743,-3.649883 3.78917,-6.419356 7.577333,-6.419356 4.250871,0 7.695022,3.487032 7.695022,7.786281 0,4.299249 -3.445157,7.786283 -7.695022,7.786283 -3.789169,0 -6.93759,-2.769474 -7.577333,-6.417321 -0.03319,0.002 -0.06739,0.0041 -0.1026,0.0041 -5.296991,0.07939 -6.94636,-12.268507 -8.949077,-15.295487 -1.426346,-2.154714 -2.90902,-4.390853 -6.201283,-5.134875 -0.371171,3.407643 -1.894081,6.463123 -4.166376,8.762366 -2.628378,2.65955 -6.260629,4.305357 -10.2721,4.305357 -4.01147,0 -7.643721,-1.645807 -10.272099,-4.305357 -2.110347,-2.135376 -3.572904,-4.922152 -4.068806,-8.036664 -2.177741,1.766926 -3.74491,5.675334 -5.30705,9.571529 -2.448324,6.110959 -4.885584,26.49061 -10.278135,26.410202 -0.07343,-0.002 -0.145853,-0.0081 -0.215259,-0.02036 -0.689032,3.534871 -3.769052,6.200528 -7.463668,6.200528 -4.2025886,0 -7.6085159,-3.44734 -7.6085159,-7.698751 0,-4.251412 3.4069332,-7.697732 7.6095219,-7.697732 l 0,0 z m 0,2.759295 c -2.6967786,0 -4.8815612,2.212729 -4.8815612,4.940472 0,2.72978 2.1847826,4.940473 4.8815612,4.940473 2.695772,0 4.882566,-2.210693 4.882566,-4.940473 -0.001,-2.727743 -2.186794,-4.940472 -4.882566,-4.940472 z m 37.605017,-22.69925 c 2.50566,0 4.774937,-1.027993 6.416542,-2.690084 1.64261,-1.662091 2.657549,-3.956245 2.657549,-6.491622 0,-2.535377 -1.014939,-4.831566 -2.657549,-6.492639 -1.641605,-1.661074 -3.910882,-2.689068 -6.416542,-2.689068 -2.50566,0 -4.773931,1.027994 -6.415535,2.689068 -1.642611,1.661073 -2.658555,3.957262 -2.658555,6.492639 0,2.536394 1.015944,4.830548 2.658555,6.491622 1.641604,1.662091 3.909875,2.690084 6.415535,2.690084 z"
     id="path4"
     inkscape:connector-curvature="0"
     style="clip-rule:evenodd;fill:#000000;fill-rule:evenodd"
     sodipodi:nodetypes="cssccccssccccccccscssscsccscssscscccscccccssscccccccsssccccsssccccsscsccsscccscscsc" /></svg>